Lab4
…
view(report_09_13_2020)

#Key differences between these files: #The report from 3-13-2020 contains 280 entries and 8 columns, while the report from 9-13-2020 cotains 9,354 entries and 14 columns. #The 9-13-2020 report also contains colums that are not in earlier reports, including columns for active, combined key, incedence rate, and case-fatality ratio.

#2. Many countries have multiple entries representing different regions (e.g.counties and states). To get the counts for a country we need to summarise the data. Use group_by() and summarize() to make a data frame (tibble) with total counts for each country.

report_09_13_2020 %>%
  group_by(Country_Region) %>%
  summarize(Deaths = sum(Deaths, na.rm = TRUE))

## `summarise()` ungrouping output (override with `.groups` argument)

## # A tibble: 188 x 2
##    Country_Region      Deaths
##    <chr>                <dbl>
##  1 Afghanistan           1420
##  2 Albania                334
##  3 Algeria               1612
##  4 Andorra                 53
##  5 Angola                 134
##  6 Antigua and Barbuda      3
##  7 Argentina            11352
##  8 Armenia                916
##  9 Australia              816
## 10 Austria                756
## #  with 178 more rows

#3. To get counts for confirmed cases per U.S state use filter() to select US and group_by and summarize as above.

filter(report_09_13_2020, Country_Region == "US") %>% 
  group_by(Province_State) %>%
  summarize(Confirmed = sum(Confirmed, na.rm = TRUE))

## `summarise()` ungrouping output (override with `.groups` argument)

## # A tibble: 58 x 2
##    Province_State       Confirmed
##    <chr>                    <dbl>
##  1 Alabama                 138755
##  2 Alaska                    6268
##  3 Arizona                 208512
##  4 Arkansas                 70219
##  5 California              761728
##  6 Colorado                 61293
##  7 Connecticut              54326
##  8 Delaware                 18849
##  9 Diamond Princess            49
## 10 District of Columbia     14592
## #  with 48 more rows
…
